ej1/Solution/binary_adder.vcd
$date
	Wed May 05 15:20:33 2021
$end
$version
	Icarus Verilog
$end
$timescale
	1ps
$end
$scope module top $end
$var wire 1 ! \$1 $end
$var wire 1 " \$11 $end
$var wire 1 # \$13 $end
$var wire 9 $ \$15 [8:0] $end
$var wire 1 % \$18 $end
$var wire 1 & \$20 $end
$var wire 1 ' \$22 $end
$var wire 1 ( \$24 $end
$var wire 1 ) \$26 $end
$var wire 1 * \$28 $end
$var wire 1 + \$3 $end
$var wire 1 , \$30 $end
$var wire 1 - \$32 $end
$var wire 1 . \$5 $end
$var wire 1 / \$7 $end
$var wire 1 0 \$9 $end
$var wire 8 1 a__data [7:0] $end
$var wire 1 2 a__ready $end
$var wire 1 3 a__valid $end
$var wire 8 4 b__data [7:0] $end
$var wire 1 5 b__ready $end
$var wire 1 6 b__valid $end
$var wire 1 7 clk $end
$var wire 1 8 r__ready $end
$var wire 1 9 rst $end
$var wire 9 : \$16 [8:0] $end
$var reg 1 ; initial $end
$var reg 8 < r__data [7:0] $end
$var reg 8 = \r__data$next [7:0] $end
$var reg 1 > r__valid $end
$var reg 1 ? \r__valid$next $end
$upscope $end
$enddefinitions $end
#0
$dumpvars
0?
0>
b0 =
b0 <
0;
bx :
19
z8
17
z6
x5
bz 4
z3
x2
bz 1
x0
x/
x.
x-
1,
x+
0*
1)
x(
1'
0&
1%
bx $
x#
x"
0!
$end
#5000
07
#10000
09
b11000 1
0#
0/
0"
0(
0.
00
1-
0+
08
15
06
02
13
17
#15000
07
#20000
17
#25000
07
#30000
17
#35000
07
#40000
17
#45000
07
#50000
17
#55000
07
#60000
17
#65000
07
#70000
17
#75000
07
#80000
17
#85000
07
#90000
17
#95000
07
#100000
17
#105000
07
#110000
1?
b10000000 =
1/
1#
1+
10
1"
12
1(
1.
16
b10000000 $
b10000000 :
b1101000 4
18
17
#115000
07
#120000
b10100011 =
b100110 1
b10100011 $
b10100011 :
b1111101 4
1?
1*
0)
1&
1!
0%
b10000000 <
1>
17
#125000
07
#130000
b1111111 =
b11000100 1
b101111111 $
b101111111 :
b10111011 4
b10100011 <
17
#135000
07
#140000
b1011011 =
b11111110 1
b101011011 $
b101011011 :
b1011101 4
b1111111 <
17
#145000
07
#150000
b11011101 =
b1001100 1
b11011101 $
b11011101 :
b10010001 4
b1011011 <
17
#155000
07
#160000
b11001110 =
b10010011 1
b11001110 $
b11001110 :
b111011 4
b11011101 <
17
#165000
07
#170000
b11011011 =
b1111010 1
b11011011 $
b11011011 :
b1100001 4
b11001110 <
17
#175000
07
#180000
b1111010 =
b10001011 1
b101111010 $
b101111010 :
b11101111 4
b11011011 <
17
#185000
07
#190000
b110000 =
b10010000 1
b100110000 $
b100110000 :
b10100000 4
b1111010 <
17
#195000
07
#200000
b1010011 =
b0 1
b1010011 $
b1010011 :
b1010011 4
b110000 <
17
#205000
07
#210000
b11010100 =
b10000100 1
b11010100 $
b11010100 :
b1010000 4
b1010011 <
17
#215000
07
#220000
b1000101 =
b11100000 1
b101000101 $
b101000101 :
b1100101 4
b11010100 <
17
#225000
07
#230000
b1111110 =
b11000101 1
b101111110 $
b101111110 :
b10111001 4
b1000101 <
17
#235000
07
#240000
b11010111 =
b11001110 1
b11010111 $
b11010111 :
b1001 4
b1111110 <
17
#245000
07
#250000
b10100110 =
b10000 1
b10100110 $
b10100110 :
b10010110 4
b11010111 <
17
#255000
07
#260000
b100 =
b10111010 1
b100000100 $
b100000100 :
b1001010 4
b10100110 <
17
#265000
07
#270000
b11110111 =
b1111110 1
b11110111 $
b11110111 :
b1111001 4
b100 <
17
#275000
07
#280000
b11011101 =
b11011 1
b11011101 $
b11011101 :
b11000010 4
b11110111 <
17
#285000
07
#290000
b10110001 =
b1110000 1
b10110001 $
b10110001 :
b1000001 4
b11011101 <
17
#295000
07
#300000
b1010100 =
b1010001 1
b1010100 $
b1010100 :
b11 4
b10110001 <
17
#305000
07
#310000
b10101101 =
b11100010 1
b110101101 $
b110101101 :
b11001011 4
b1010100 <
17
#315000
07
#320000
b1011010 =
b10100 1
b1011010 $
b1011010 :
b1000110 4
b10101101 <
17
#325000
07
#330000
b1011111 =
b100110 1
b1011111 $
b1011111 :
b111001 4
b1011010 <
17
#335000
07
#340000
b11110011 =
b1001111 1
b11110011 $
b11110011 :
b10100100 4
b1011111 <
17
#345000
07
#350000
b1110000 =
b1010 1
b1110000 $
b1110000 :
b1100110 4
b11110011 <
17
#355000
07
#360000
b11111101 =
b1010000 1
b11111101 $
b11111101 :
b10101101 4
b1110000 <
17
#365000
07
#370000
b1110010 =
b1000100 1
b1110010 $
b1110010 :
b101110 4
b11111101 <
17
#375000
07
#380000
b11000101 =
b11110110 1
b111000101 $
b111000101 :
b11001111 4
b1110010 <
17
#385000
07
#390000
b1000010 =
b1101010 1
b101000010 $
b101000010 :
b11011000 4
b11000101 <
17
#395000
07
#400000
b10100100 =
b11000001 1
b110100100 $
b110100100 :
b11100011 4
b1000010 <
17
#405000
07
#410000
b11001110 =
b11101 1
b11001110 $
b11001110 :
b10110001 4
b10100100 <
17
#415000
07
#420000
b11011111 =
b110111 1
b11011111 $
b11011111 :
b10101000 4
b11001110 <
17
#425000
07
#430000
b11011100 =
b10101100 1
b11011100 $
b11011100 :
b110000 4
b11011111 <
17
#435000
07
#440000
b101011 =
b10111010 1
b100101011 $
b100101011 :
b1110001 4
b11011100 <
17
#445000
07
#450000
b111011 =
b1011001 1
b100111011 $
b100111011 :
b11100010 4
b101011 <
17
#455000
07
#460000
b11101001 =
b1100101 1
b11101001 $
b11101001 :
b10000100 4
b111011 <
17
#465000
07
#470000
b1001111 =
b11111111 1
b101001111 $
b101001111 :
b1010000 4
b11101001 <
17
#475000
07
#480000
b1 =
b10010100 1
b100000001 $
b100000001 :
b1101101 4
b1001111 <
17
#485000
07
#490000
b10010110 =
b10100110 1
b110010110 $
b110010110 :
b11110000 4
b1 <
17
#495000
07
#500000
b1100 =
b10100100 1
b100001100 $
b100001100 :
b1101000 4
b10010110 <
17
#505000
07
#510000
b11 =
b11111000 1
b100000011 $
b100000011 :
b1011 4
b1100 <
17
#515000
07
#520000
b11010011 =
b1100001 1
b11010011 $
b11010011 :
b1110010 4
b11 <
17
#525000
07
#530000
b100010 =
b1110111 1
b100100010 $
b100100010 :
b10101011 4
b11010011 <
17
#535000
07
#540000
b101001 =
b1010101 1
b100101001 $
b100101001 :
b11010100 4
b100010 <
17
#545000
07
#550000
b10100111 =
b110101 1
b10100111 $
b10100111 :
b1110010 4
b101001 <
17
#555000
07
#560000
b100011 =
b1110111 1
b100100011 $
b100100011 :
b10101100 4
b10100111 <
17
#565000
07
#570000
b11000111 =
b1000110 1
b11000111 $
b11000111 :
b10000001 4
b100011 <
17
#575000
07
#580000
b11010100 =
b1100100 1
b11010100 $
b11010100 :
b1110000 4
b11000111 <
17
#585000
07
#590000
b11000001 =
b10000011 1
b11000001 $
b11000001 :
b111110 4
b11010100 <
17
#595000
07
#600000
b10101100 =
b1001100 1
b10101100 $
b10101100 :
b1100000 4
b11000001 <
17
#605000
07
#610000
b11001110 =
b111100 1
b11001110 $
b11001110 :
b10010010 4
b10101100 <
17
#615000
07
#620000
b10101101 =
b10110111 1
b110101101 $
b110101101 :
b11110110 4
b11001110 <
17
#625000
07
#630000
b1100 =
b10000000 1
b100001100 $
b100001100 :
b10001100 4
b10101101 <
17
#635000
07
#640000
b1101001 =
b111101 1
b1101001 $
b1101001 :
b101100 4
b1100 <
17
#645000
07
#650000
b100010 =
b11010001 1
b100100010 $
b100100010 :
b1010001 4
b1101001 <
17
#655000
07
#660000
b10100010 =
b1100111 1
b10100010 $
b10100010 :
b111011 4
b100010 <
17
#665000
07
#670000
b10000100 =
b1010000 1
b10000100 $
b10000100 :
b110100 4
b10100010 <
17
#675000
07
#680000
b10100111 =
b11001010 1
b110100111 $
b110100111 :
b11011101 4
b10000100 <
17
#685000
07
#690000
b1001100 =
b10100100 1
b101001100 $
b101001100 :
b10101000 4
b10100111 <
17
#695000
07
#700000
b10111100 =
b101110 1
b10111100 $
b10111100 :
b10001110 4
b1001100 <
17
#705000
07
#710000
b111101 =
b11010100 1
b100111101 $
b100111101 :
b1101001 4
b10111100 <
17
#715000
07
#720000
b11011001 =
b100011 1
b11011001 $
b11011001 :
b10110110 4
b111101 <
17
#725000
07
#730000
b1001101 =
b10100000 1
b101001101 $
b101001101 :
b10101101 4
b11011001 <
17
#735000
07
#740000
b111001 =
b0 1
b111001 $
b111001 :
b111001 4
b1001101 <
17
#745000
07
#750000
b1010001 =
b110111 1
b1010001 $
b1010001 :
b11010 4
b111001 <
17
#755000
07
#760000
b110011 =
b1101011 1
b100110011 $
b100110011 :
b11001000 4
b1010001 <
17
#765000
07
#770000
b10101010 =
b1111110 1
b10101010 $
b10101010 :
b101100 4
b110011 <
17
#775000
07
#780000
b1100101 =
b1011011 1
b1100101 $
b1100101 :
b1010 4
b10101010 <
17
#785000
07
#790000
b10100110 =
b1101001 1
b10100110 $
b10100110 :
b111101 4
b1100101 <
17
#795000
07
#800000
b10001110 =
b10000100 1
b10001110 $
b10001110 :
b1010 4
b10100110 <
17
#805000
07
#810000
b10010100 =
b101101 1
b10010100 $
b10010100 :
b1100111 4
b10001110 <
17
#815000
07
#820000
b1010011 =
b100110 1
b1010011 $
b1010011 :
b101101 4
b10010100 <
17
#825000
07
#830000
b10000010 =
b11011110 1
b110000010 $
b110000010 :
b10100100 4
b1010011 <
17
#835000
07
#840000
b11001100 =
b1000010 1
b11001100 $
b11001100 :
b10001010 4
b10000010 <
17
#845000
07
#850000
b1101001 =
b10011111 1
b101101001 $
b101101001 :
b11001010 4
b11001100 <
17
#855000
07
#860000
b1011100 =
b10010000 1
b101011100 $
b101011100 :
b11001100 4
b1101001 <
17
#865000
07
#870000
b110101 =
b10111110 1
b100110101 $
b100110101 :
b1110111 4
b1011100 <
17
#875000
07
#880000
b1000000 =
b1101101 1
b101000000 $
b101000000 :
b11010011 4
b110101 <
17
#885000
07
#890000
b11011111 =
b111110 1
b11011111 $
b11011111 :
b10100001 4
b1000000 <
17
#895000
07
#900000
b1111101 =
b1101001 1
b1111101 $
b1111101 :
b10100 4
b11011111 <
17
#905000
07
#910000
b1100101 =
b10011 1
b1100101 $
b1100101 :
b1010010 4
b1111101 <
17
#915000
07
#920000
b1001110 =
b11001110 1
b101001110 $
b101001110 :
b10000000 4
b1100101 <
17
#925000
07
#930000
b1110010 =
b1010010 1
b1110010 $
b1110010 :
b100000 4
b1001110 <
17
#935000
07
#940000
b10110001 =
b11001110 1
b110110001 $
b110110001 :
b11100011 4
b1110010 <
17
#945000
07
#950000
b10010111 =
b101100 1
b10010111 $
b10010111 :
b1101011 4
b10110001 <
17
#955000
07
#960000
b10010101 =
b1101110 1
b10010101 $
b10010101 :
b100111 4
b10010111 <
17
#965000
07
#970000
b11101001 =
b100010 1
b11101001 $
b11101001 :
b11000111 4
b10010101 <
17
#975000
07
#980000
b1011 =
b10110010 1
b100001011 $
b100001011 :
b1011001 4
b11101001 <
17
#985000
07
#990000
b1110101 =
b1001101 1
b1110101 $
b1110101 :
b101000 4
b1011 <
17
#995000
07
#1000000
b1010001 =
b1001011 1
b1010001 $
b1010001 :
b110 4
b1110101 <
17
#1005000
07
#1010000
b11110001 =
b11100001 1
b11110001 $
b11110001 :
b10000 4
b1010001 <
17
#1015000
07
#1020000
b11010010 =
b11101101 1
b111010010 $
b111010010 :
b11100101 4
b11110001 <
17
#1025000
07
#1030000
b1000110 =
b1101010 1
b101000110 $
b101000110 :
b11011100 4
b11010010 <
17
#1035000
07
#1040000
b10001110 =
b1000011 1
b10001110 $
b10001110 :
b1001011 4
b1000110 <
17
#1045000
07
#1050000
b111011 =
b11111000 1
b100111011 $
b100111011 :
b1000011 4
b10001110 <
17
#1055000
07
#1060000
b11100101 =
b1010 1
b11100101 $
b11100101 :
b11011011 4
b111011 <
17
#1065000
07
#1070000
b1000001 =
b11110001 1
b101000001 $
b101000001 :
b1010000 4
b11100101 <
17
#1075000
07
#1080000
b110 =
b110101 1
b100000110 $
b100000110 :
b11010001 4
b1000001 <
17
#1085000
07
#1090000
b10000101 =
b10000 1
b10000101 $
b10000101 :
b1110101 4
b110 <
17
#1095000
07
#1100000
b1101111 =
b1011011 1
b1101111 $
b1101111 :
b10100 4
b10000101 <
17
#1105000
07
#1110000
0?
0#
0/
00
05
0-
0+
0"
02
0(
0.
03
06
b1101111 <
17
#1115000
07
#1120000
0*
1)
0&
0!
1%
0>
17
