ej1/Solution/binary_adder.vcd
$date
	Tue May 04 06:32:27 2021
$end
$version
	Icarus Verilog
$end
$timescale
	1ps
$end
$scope module top $end
$var wire 1 ! \$1 $end
$var wire 1 " \$11 $end
$var wire 1 # \$13 $end
$var wire 6 $ \$15 [5:0] $end
$var wire 1 % \$18 $end
$var wire 1 & \$20 $end
$var wire 1 ' \$22 $end
$var wire 1 ( \$24 $end
$var wire 1 ) \$26 $end
$var wire 1 * \$28 $end
$var wire 1 + \$3 $end
$var wire 1 , \$5 $end
$var wire 1 - \$7 $end
$var wire 1 . \$9 $end
$var wire 5 / a__data [4:0] $end
$var wire 1 0 a__ready $end
$var wire 1 1 a__valid $end
$var wire 5 2 b__data [4:0] $end
$var wire 1 3 b__ready $end
$var wire 1 4 b__valid $end
$var wire 1 5 clk $end
$var wire 1 6 r__ready $end
$var wire 1 7 rst $end
$var wire 6 8 \$16 [5:0] $end
$var reg 1 9 initial $end
$var reg 5 : r__data [4:0] $end
$var reg 5 ; \r__data$next [4:0] $end
$var reg 1 < r__valid $end
$var reg 1 = \r__valid$next $end
$upscope $end
$enddefinitions $end
#0
$dumpvars
0=
0<
b0 ;
b0 :
09
bx 8
17
z6
15
z4
13
bz 2
z1
10
bz /
x.
x-
x,
x+
1*
0)
1(
1'
0&
1%
bx $
x#
x"
0!
$end
#250
05
#500
b11011 ;
1=
1#
1-
1.
1+
1"
1,
07
11
b11011 $
b11011 8
b11010 /
14
b1 2
16
15
#750
05
#1000
b10000 ;
b11001 /
b110000 $
b110000 8
b10111 2
1=
1)
0(
1&
1!
0%
b11011 :
1<
15
#1250
05
#1500
b110 ;
b10111 /
b100110 $
b100110 8
b1111 2
b10000 :
15
#1750
05
#2000
b1111 ;
b1001 /
b1111 $
b1111 8
b110 2
b110 :
15
#2250
05
#2500
b1011 ;
b110 /
b1011 $
b1011 8
b101 2
b1111 :
15
#2750
05
#3000
b10000 ;
b11001 /
b110000 $
b110000 8
b10111 2
b1011 :
15
#3250
05
#3500
b11110 ;
b1000 /
b11110 $
b11110 8
b10110 2
b10000 :
15
#3750
05
#4000
b10000 ;
b10011 /
b110000 $
b110000 8
b11101 2
b11110 :
15
#4250
05
#4500
b11 ;
b10001 /
b100011 $
b100011 8
b10010 2
b10000 :
15
#4750
05
#5000
b11001 ;
b11001 $
b11001 8
b1000 2
b11 :
15
#5250
05
#5500
b11010 ;
b1 /
b11010 $
b11010 8
b11001 2
b11001 :
15
#5750
05
#6000
b11110 ;
b10001 /
b11110 $
b11110 8
b1101 2
b11010 :
15
#6250
05
#6500
b10011 ;
b11110 /
b110011 $
b110011 8
b10101 2
b11110 :
15
#6750
05
#7000
b11101 ;
b1011 /
b11101 $
b11101 8
b10010 2
b10011 :
15
#7250
05
#7500
b0 ;
b11100 /
b100000 $
b100000 8
b100 2
b11101 :
15
#7750
05
#8000
b1100 ;
b1 /
b1100 $
b1100 8
b1011 2
b0 :
15
#8250
05
#8500
b10101 ;
b10001 /
b10101 $
b10101 8
b100 2
b1100 :
15
#8750
05
#9000
b1010 ;
b11111 /
b101010 $
b101010 8
b1011 2
b10101 :
15
#9250
05
#9500
b10 ;
b100010 $
b100010 8
b10111 /
b1010 :
15
#9750
05
#10000
b10111 ;
b1000 /
b10111 $
b10111 8
b1111 2
b10 :
15
#10250
05
#10500
b1100 ;
b1110 /
b101100 $
b101100 8
b11110 2
b10111 :
15
#10750
05
#11000
b10110 ;
b11001 /
b110110 $
b110110 8
b11101 2
b1100 :
15
#11250
05
#11500
b11000 ;
b1110 /
b11000 $
b11000 8
b1010 2
b10110 :
15
#11750
05
#12000
b11011 ;
b10011 /
b11011 $
b11011 8
b1000 2
b11000 :
15
#12250
05
#12500
b10110 ;
b1100 /
b10110 $
b10110 8
b1010 2
b11011 :
15
#12750
05
#13000
b11 ;
b100 /
b100011 $
b100011 8
b11111 2
b10110 :
15
#13250
05
#13500
b1100 ;
b111 /
b1100 $
b1100 8
b101 2
b11 :
15
#13750
05
#14000
b11011 ;
b11001 /
b11011 $
b11011 8
b10 2
b1100 :
15
#14250
05
#14500
b11010 ;
b110 /
b11010 $
b11010 8
b10100 2
b11011 :
15
#14750
05
#15000
b11011 ;
b1000 /
b11011 $
b11011 8
b10011 2
b11010 :
15
#15250
05
#15500
b0 ;
b11100 /
b100000 $
b100000 8
b100 2
b11011 :
15
#15750
05
#16000
b11111 ;
b1110 /
b11111 $
b11111 8
b10001 2
b0 :
15
#16250
05
#16500
b11100 ;
b10011 /
b11100 $
b11100 8
b1001 2
b11111 :
15
#16750
05
#17000
b11011 ;
b100 /
b11011 $
b11011 8
b10111 2
b11100 :
15
#17250
05
#17500
b1001 ;
b11 /
b1001 $
b1001 8
b110 2
b11011 :
15
#17750
05
#18000
b11001 ;
b111 /
b11001 $
b11001 8
b10010 2
b1001 :
15
#18250
05
#18500
b101 ;
b100 /
b101 $
b101 8
b1 2
b11001 :
15
#18750
05
#19000
b111 ;
b101 /
b111 $
b111 8
b10 2
b101 :
15
#19250
05
#19500
b10000 ;
b10101 /
b110000 $
b110000 8
b11011 2
b111 :
15
#19750
05
#20000
b10011 ;
b101 /
b10011 $
b10011 8
b1110 2
b10000 :
15
#20250
05
#20500
b100 ;
b1001 /
b100100 $
b100100 8
b11011 2
b10011 :
15
#20750
05
#21000
b11000 ;
b10111 /
b11000 $
b11000 8
b1 2
b100 :
15
#21250
05
#21500
b1110 ;
b1011 /
b1110 $
b1110 8
b11 2
b11000 :
15
#21750
05
#22000
b1111 ;
b10101 /
b101111 $
b101111 8
b11010 2
b1110 :
15
#22250
05
#22500
b10001 ;
b110 /
b10001 $
b10001 8
b1011 2
b1111 :
15
#22750
05
#23000
b111 ;
b10101 /
b100111 $
b100111 8
b10010 2
b10001 :
15
#23250
05
#23500
b11111 ;
b10010 /
b11111 $
b11111 8
b1101 2
b111 :
15
#23750
05
#24000
b1110 ;
b10101 /
b101110 $
b101110 8
b11001 2
b11111 :
15
#24250
05
#24500
b10011 ;
b11111 /
b110011 $
b110011 8
b10100 2
b1110 :
15
#24750
05
#25000
b11 ;
b100011 $
b100011 8
b100 2
b10011 :
15
#25250
05
#25500
b1000 ;
b1011 /
b101000 $
b101000 8
b11101 2
b11 :
15
#25750
05
#26000
b10001 ;
b11110 /
b110001 $
b110001 8
b10011 2
b1000 :
15
#26250
05
#26500
b1100 ;
b1100 /
b1100 $
b1100 8
b0 2
b10001 :
15
#26750
05
#27000
b10010 ;
b10111 /
b110010 $
b110010 8
b11011 2
b1100 :
15
#27250
05
#27500
b1 ;
b101 /
b100001 $
b100001 8
b11100 2
b10010 :
15
#27750
05
#28000
b101 ;
b11001 /
b100101 $
b100101 8
b1100 2
b1 :
15
#28250
05
#28500
b1010 ;
b10011 /
b101010 $
b101010 8
b10111 2
b101 :
15
#28750
05
#29000
b10101 ;
b1110 /
b10101 $
b10101 8
b111 2
b1010 :
15
#29250
05
#29500
b1011 ;
b1100 /
b101011 $
b101011 8
b11111 2
b10101 :
15
#29750
05
#30000
b101 ;
b11100 /
b100101 $
b100101 8
b1001 2
b1011 :
15
#30250
05
#30500
b10100 ;
b11010 /
b110100 $
b110100 8
b11010 2
b101 :
15
#30750
05
#31000
b10110 ;
b11101 /
b110110 $
b110110 8
b11001 2
b10100 :
15
#31250
05
#31500
b10 ;
b1000 /
b100010 $
b100010 8
b11010 2
b10110 :
15
#31750
05
#32000
b10011 ;
b1010 /
b10011 $
b10011 8
b1001 2
b10 :
15
#32250
05
#32500
b11010 ;
b1000 /
b11010 $
b11010 8
b10010 2
b10011 :
15
#32750
05
#33000
b10 ;
b11 /
b100010 $
b100010 8
b11111 2
b11010 :
15
#33250
05
#33500
b100 ;
b10001 /
b100100 $
b100100 8
b10011 2
b10 :
15
#33750
05
#34000
b10110 ;
b11010 /
b110110 $
b110110 8
b11100 2
b100 :
15
#34250
05
#34500
b11010 ;
b10101 /
b11010 $
b11010 8
b101 2
b10110 :
15
#34750
05
#35000
b10101 ;
b1011 /
b10101 $
b10101 8
b1010 2
b11010 :
15
#35250
05
#35500
b11110 ;
b10110 /
b11110 $
b11110 8
b1000 2
b10101 :
15
#35750
05
#36000
b11 ;
b10001 /
b100011 $
b100011 8
b10010 2
b11110 :
15
#36250
05
#36500
b1111 ;
b11110 /
b101111 $
b101111 8
b10001 2
b11 :
15
#36750
05
#37000
b1000 ;
b11 /
b1000 $
b1000 8
b101 2
b1111 :
15
#37250
05
#37500
b10111 ;
b10111 /
b10111 $
b10111 8
b0 2
b1000 :
15
#37750
05
#38000
b100 ;
b110 /
b100100 $
b100100 8
b11110 2
b10111 :
15
#38250
05
#38500
b11100 ;
b10000 /
b11100 $
b11100 8
b1100 2
b100 :
15
#38750
05
#39000
b11111 ;
b10110 /
b11111 $
b11111 8
b1001 2
b11100 :
15
#39250
05
#39500
b111 ;
b100111 $
b100111 8
b11110 /
b11111 :
15
#39750
05
#40000
b100 /
b111 $
b111 8
b11 2
b111 :
15
#40250
05
#40500
b10 ;
b100010 $
b100010 8
b11110 2
15
#40750
05
#41000
b0 ;
b11110 /
b100000 $
b100000 8
b10 2
b10 :
15
#41250
05
#41500
b110 ;
b100110 $
b100110 8
b1000 2
b0 :
15
#41750
05
#42000
b101 ;
b100101 $
b100101 8
b11101 /
b110 :
15
#42250
05
#42500
b10111 ;
b11000 /
b110111 $
b110111 8
b11111 2
b101 :
15
#42750
05
#43000
b10000 ;
b11100 /
b110000 $
b110000 8
b10100 2
b10111 :
15
#43250
05
#43500
b1100 ;
b10000 /
b101100 $
b101100 8
b11100 2
b10000 :
15
#43750
05
#44000
b10011 ;
b10 /
b10011 $
b10011 8
b10001 2
b1100 :
15
#44250
05
#44500
b10010 ;
b11011 /
b110010 $
b110010 8
b10111 2
b10011 :
15
#44750
05
#45000
b11000 ;
b110 /
b11000 $
b11000 8
b10010 2
b10010 :
15
#45250
05
#45500
b100 ;
b11111 /
b100100 $
b100100 8
b101 2
b11000 :
15
#45750
05
#46000
b11101 ;
b10101 /
b11101 $
b11101 8
b1000 2
b100 :
15
#46250
05
#46500
b1011 ;
b10011 /
b101011 $
b101011 8
b11000 2
b11101 :
15
#46750
05
#47000
b1 ;
b11000 /
b100001 $
b100001 8
b1001 2
b1011 :
15
#47250
05
#47500
b10 ;
b10000 /
b100010 $
b100010 8
b10010 2
b1 :
15
#47750
05
#48000
b11001 ;
b10 /
b11001 $
b11001 8
b10111 2
b10 :
15
#48250
05
#48500
b11011 ;
b10100 /
b11011 $
b11011 8
b111 2
b11001 :
15
#48750
05
#49000
b1001 ;
b1 /
b1001 $
b1001 8
b1000 2
b11011 :
15
#49250
05
#49500
b11 ;
b10100 /
b100011 $
b100011 8
b1111 2
b1001 :
15
#49750
05
#50000
b1111 ;
b1111 $
b1111 8
b0 /
b11 :
15
#50250
05
#50500
0=
0#
0-
0.
0+
0"
0,
01
04
b1111 :
15
#50750
05
#51000
0)
1(
0&
0!
1%
0<
15
