ej1/Solution/binary_adder.vcd
$date
	Tue May 04 23:59:26 2021
$end
$version
	Icarus Verilog
$end
$timescale
	1ps
$end
$scope module top $end
$var wire 1 ! \$1 $end
$var wire 1 " \$11 $end
$var wire 1 # \$13 $end
$var wire 9 $ \$15 [8:0] $end
$var wire 1 % \$18 $end
$var wire 1 & \$20 $end
$var wire 1 ' \$22 $end
$var wire 1 ( \$24 $end
$var wire 1 ) \$26 $end
$var wire 1 * \$28 $end
$var wire 1 + \$3 $end
$var wire 1 , \$5 $end
$var wire 1 - \$7 $end
$var wire 1 . \$9 $end
$var wire 8 / a__data [7:0] $end
$var wire 1 0 a__ready $end
$var wire 1 1 a__valid $end
$var wire 8 2 b__data [7:0] $end
$var wire 1 3 b__ready $end
$var wire 1 4 b__valid $end
$var wire 1 5 clk $end
$var wire 1 6 r__ready $end
$var wire 1 7 rst $end
$var wire 9 8 \$16 [8:0] $end
$var reg 1 9 initial $end
$var reg 8 : r__data [7:0] $end
$var reg 8 ; \r__data$next [7:0] $end
$var reg 1 < r__valid $end
$var reg 1 = \r__valid$next $end
$upscope $end
$enddefinitions $end
#0
$dumpvars
0=
0<
b0 ;
b0 :
09
bx 8
17
z6
15
z4
13
bz 2
z1
10
bz /
x.
x-
x,
x+
1*
0)
1(
1'
0&
1%
bx $
x#
x"
0!
$end
#250
05
#500
b1111101 ;
1=
1#
1-
1.
1+
1"
1,
07
11
b1111101 $
b1111101 8
b1001100 /
14
b110001 2
16
15
#750
05
#1000
b10101110 ;
b11010 /
b10101110 $
b10101110 8
b10010100 2
1=
1)
0(
1&
1!
0%
b1111101 :
1<
15
#1250
05
#1500
b1101100 ;
b11110011 /
b101101100 $
b101101100 8
b1111001 2
b10101110 :
15
#1750
05
#2000
b10110110 ;
b11000101 /
b110110110 $
b110110110 8
b11110001 2
b1101100 :
15
#2250
05
#2500
b1100110 ;
b10111110 /
b101100110 $
b101100110 8
b10101000 2
b10110110 :
15
#2750
05
#3000
b10001101 ;
b1100110 /
b10001101 $
b10001101 8
b100111 2
b1100110 :
15
#3250
05
#3500
b1000011 ;
b10000001 /
b101000011 $
b101000011 8
b11000010 2
b10001101 :
15
#3750
05
#4000
b10010 ;
b1110110 /
b100010010 $
b100010010 8
b10011100 2
b1000011 :
15
#4250
05
#4500
b1001 ;
b11110000 /
b100001001 $
b100001001 8
b11001 2
b10010 :
15
#4750
05
#5000
b11001111 ;
b100 /
b11001111 $
b11001111 8
b11001011 2
b1001 :
15
#5250
05
#5500
b11011000 ;
b10001010 /
b11011000 $
b11011000 8
b1001110 2
b11001111 :
15
#5750
05
#6000
b1111011 ;
b10000111 /
b101111011 $
b101111011 8
b11110100 2
b11011000 :
15
#6250
05
#6500
b10010111 ;
b10111001 /
b110010111 $
b110010111 8
b11011110 2
b1111011 :
15
#6750
05
#7000
b110101 ;
b1011111 /
b100110101 $
b100110101 8
b11010110 2
b10010111 :
15
#7250
05
#7500
b10111 ;
b10100100 /
b100010111 $
b100010111 8
b1110011 2
b110101 :
15
#7750
05
#8000
b11001111 ;
b1001000 /
b11001111 $
b11001111 8
b10000111 2
b10111 :
15
#8250
05
#8500
b11111010 ;
b11111001 /
b11111010 $
b11111010 8
b1 2
b11001111 :
15
#8750
05
#9000
b11100101 ;
b1011100 /
b11100101 $
b11100101 8
b10001001 2
b11111010 :
15
#9250
05
#9500
b10101011 ;
b10100010 /
b10101011 $
b10101011 8
b1001 2
b11100101 :
15
#9750
05
#10000
b10000110 ;
b11000010 /
b110000110 $
b110000110 8
b11000100 2
b10101011 :
15
#10250
05
#10500
b10011011 ;
b10101101 /
b110011011 $
b110011011 8
b11101110 2
b10000110 :
15
#10750
05
#11000
b100101 ;
b11000011 /
b100100101 $
b100100101 8
b1100010 2
b10011011 :
15
#11250
05
#11500
b1111001 ;
b1100101 /
b1111001 $
b1111001 8
b10100 2
b100101 :
15
#11750
05
#12000
b101000 ;
b10010001 /
b100101000 $
b100101000 8
b10010111 2
b1111001 :
15
#12250
05
#12500
b11001110 ;
b10110001 /
b11001110 $
b11001110 8
b11101 2
b101000 :
15
#12750
05
#13000
b1111 ;
b11111000 /
b100001111 $
b100001111 8
b10111 2
b11001110 :
15
#13250
05
#13500
b10101 ;
b110110 /
b100010101 $
b100010101 8
b11011111 2
b1111 :
15
#13750
05
#14000
b1101 ;
b1001110 /
b100001101 $
b100001101 8
b10111111 2
b10101 :
15
#14250
05
#14500
b11000010 ;
b1100101 /
b11000010 $
b11000010 8
b1011101 2
b1101 :
15
#14750
05
#15000
b1101101 ;
b11101001 /
b101101101 $
b101101101 8
b10000100 2
b11000010 :
15
#15250
05
#15500
b1000110 ;
b10101111 /
b101000110 $
b101000110 8
b10010111 2
b1101101 :
15
#15750
05
#16000
b1111 ;
b1011011 /
b100001111 $
b100001111 8
b10110100 2
b1000110 :
15
#16250
05
#16500
b10000101 ;
b10010011 /
b110000101 $
b110000101 8
b11110010 2
b1111 :
15
#16750
05
#17000
b11001000 ;
b1011101 /
b11001000 $
b11001000 8
b1101011 2
b10000101 :
15
#17250
05
#17500
b11011111 ;
b10101101 /
b11011111 $
b11011111 8
b110010 2
b11001000 :
15
#17750
05
#18000
b110 ;
b1011111 /
b100000110 $
b100000110 8
b10100111 2
b11011111 :
15
#18250
05
#18500
b10001100 ;
b10011 /
b10001100 $
b10001100 8
b1111001 2
b110 :
15
#18750
05
#19000
b11011010 ;
b11000000 /
b11011010 $
b11011010 8
b11010 2
b10001100 :
15
#19250
05
#19500
b1000 ;
b11111101 /
b100001000 $
b100001000 8
b1011 2
b11011010 :
15
#19750
05
#20000
b1 ;
b1000111 /
b100000001 $
b100000001 8
b10111010 2
b1000 :
15
#20250
05
#20500
b11111000 ;
b10001001 /
b11111000 $
b11111000 8
b1101111 2
b1 :
15
#20750
05
#21000
b110010 ;
b10011110 /
b100110010 $
b100110010 8
b10010100 2
b11111000 :
15
#21250
05
#21500
b10001100 ;
b1110000 /
b10001100 $
b10001100 8
b11100 2
b110010 :
15
#21750
05
#22000
b10100111 ;
b1001000 /
b10100111 $
b10100111 8
b1011111 2
b10001100 :
15
#22250
05
#22500
b1000110 ;
b11010110 /
b101000110 $
b101000110 8
b1110000 2
b10100111 :
15
#22750
05
#23000
b110011 ;
b11000101 /
b100110011 $
b100110011 8
b1101110 2
b1000110 :
15
#23250
05
#23500
b1101010 ;
b1 /
b1101010 $
b1101010 8
b1101001 2
b110011 :
15
#23750
05
#24000
b1010010 ;
b1001 /
b1010010 $
b1010010 8
b1001001 2
b1101010 :
15
#24250
05
#24500
b11111111 ;
b10000111 /
b11111111 $
b11111111 8
b1111000 2
b1010010 :
15
#24750
05
#25000
b10001111 ;
b11111001 /
b110001111 $
b110001111 8
b10010110 2
b11111111 :
15
#25250
05
#25500
b1011101 ;
b10111011 /
b101011101 $
b101011101 8
b10100010 2
b10001111 :
15
#25750
05
#26000
b10100011 ;
b100111 /
b10100011 $
b10100011 8
b1111100 2
b1011101 :
15
#26250
05
#26500
b10001100 ;
b111010 /
b10001100 $
b10001100 8
b1010010 2
b10100011 :
15
#26750
05
#27000
b11010 ;
b11111 /
b100011010 $
b100011010 8
b11111011 2
b10001100 :
15
#27250
05
#27500
b100110 ;
b10111110 /
b100100110 $
b100100110 8
b1101000 2
b11010 :
15
#27750
05
#28000
b1110100 ;
b11100 /
b1110100 $
b1110100 8
b1011000 2
b100110 :
15
#28250
05
#28500
b1001110 ;
b1010000 /
b101001110 $
b101001110 8
b11111110 2
b1110100 :
15
#28750
05
#29000
b11111001 ;
b11010010 /
b11111001 $
b11111001 8
b100111 2
b1001110 :
15
#29250
05
#29500
b10010010 ;
b11111111 /
b110010010 $
b110010010 8
b10010011 2
b11111001 :
15
#29750
05
#30000
b11101 ;
b1001110 /
b100011101 $
b100011101 8
b11001111 2
b10010010 :
15
#30250
05
#30500
b101111 ;
b11011011 /
b100101111 $
b100101111 8
b1010100 2
b11101 :
15
#30750
05
#31000
b11111 ;
b1000 /
b11111 $
b11111 8
b10111 2
b101111 :
15
#31250
05
#31500
b10010010 ;
b1000110 /
b10010010 $
b10010010 8
b1001100 2
b11111 :
15
#31750
05
#32000
b11010111 ;
b110000 /
b11010111 $
b11010111 8
b10100111 2
b10010010 :
15
#32250
05
#32500
b111100 ;
b11110000 /
b100111100 $
b100111100 8
b1001100 2
b11010111 :
15
#32750
05
#33000
b11100 ;
b10000000 /
b100011100 $
b100011100 8
b10011100 2
b111100 :
15
#33250
05
#33500
b10 ;
b11000 /
b100000010 $
b100000010 8
b11101010 2
b11100 :
15
#33750
05
#34000
b1110 ;
b10011110 /
b100001110 $
b100001110 8
b1110000 2
b10 :
15
#34250
05
#34500
b1000011 ;
b1101 /
b1000011 $
b1000011 8
b110110 2
b1110 :
15
#34750
05
#35000
b110 ;
b11010111 /
b100000110 $
b100000110 8
b101111 2
b1000011 :
15
#35250
05
#35500
b11010111 ;
b11000001 /
b11010111 $
b11010111 8
b10110 2
b110 :
15
#35750
05
#36000
b10001011 ;
b10110010 /
b110001011 $
b110001011 8
b11011001 2
b11010111 :
15
#36250
05
#36500
b11100101 ;
b110110 /
b11100101 $
b11100101 8
b10101111 2
b10001011 :
15
#36750
05
#37000
b1101111 ;
b10011 /
b1101111 $
b1101111 8
b1011100 2
b11100101 :
15
#37250
05
#37500
b1100101 ;
b11110111 /
b101100101 $
b101100101 8
b1101110 2
b1101111 :
15
#37750
05
#38000
b11011110 ;
b11011101 /
b11011110 $
b11011110 8
b1 2
b1100101 :
15
#38250
05
#38500
b1001100 ;
b11011001 /
b101001100 $
b101001100 8
b1110011 2
b11011110 :
15
#38750
05
#39000
b1000111 ;
b1010100 /
b101000111 $
b101000111 8
b11110011 2
b1001100 :
15
#39250
05
#39500
b110100 ;
b11000111 /
b100110100 $
b100110100 8
b1101101 2
b1000111 :
15
#39750
05
#40000
b11111000 ;
b11111000 $
b11111000 8
b10001011 /
b110100 :
15
#40250
05
#40500
b101101 ;
b1010101 /
b100101101 $
b100101101 8
b11011000 2
b11111000 :
15
#40750
05
#41000
b100 ;
b110111 /
b100000100 $
b100000100 8
b11001101 2
b101101 :
15
#41250
05
#41500
b11111100 ;
b11111001 /
b11111100 $
b11111100 8
b11 2
b100 :
15
#41750
05
#42000
b1011000 ;
b10010001 /
b101011000 $
b101011000 8
b11000111 2
b11111100 :
15
#42250
05
#42500
b1100010 ;
b100111 /
b1100010 $
b1100010 8
b111011 2
b1011000 :
15
#42750
05
#43000
b1110101 ;
b10011111 /
b101110101 $
b101110101 8
b11010110 2
b1100010 :
15
#43250
05
#43500
b1110110 ;
b10110000 /
b101110110 $
b101110110 8
b11000110 2
b1110101 :
15
#43750
05
#44000
b10100000 ;
b1010101 /
b10100000 $
b10100000 8
b1001011 2
b1110110 :
15
#44250
05
#44500
b100001 ;
b10100111 /
b100100001 $
b100100001 8
b1111010 2
b10100000 :
15
#44750
05
#45000
b1 ;
b110110 /
b100000001 $
b100000001 8
b11001011 2
b100001 :
15
#45250
05
#45500
b10100 ;
b1001100 /
b100010100 $
b100010100 8
b11001000 2
b1 :
15
#45750
05
#46000
b10101000 ;
b110 /
b10101000 $
b10101000 8
b10100010 2
b10100 :
15
#46250
05
#46500
b10010011 ;
b11111 /
b10010011 $
b10010011 8
b1110100 2
b10101000 :
15
#46750
05
#47000
b1011101 ;
b10011010 /
b101011101 $
b101011101 8
b11000011 2
b10010011 :
15
#47250
05
#47500
b1111 ;
b10110100 /
b100001111 $
b100001111 8
b1011011 2
b1011101 :
15
#47750
05
#48000
b10101100 ;
b11001110 /
b110101100 $
b110101100 8
b11011110 2
b1111 :
15
#48250
05
#48500
b1000010 ;
b101000010 $
b101000010 8
b1100100 /
b10101100 :
15
#48750
05
#49000
b10100111 ;
b10101 /
b10100111 $
b10100111 8
b10010010 2
b1000010 :
15
#49250
05
#49500
b101000 ;
b10001011 /
b100101000 $
b100101000 8
b10011101 2
b10100111 :
15
#49750
05
#50000
b10000000 ;
b11110010 /
b110000000 $
b110000000 8
b10001110 2
b101000 :
15
#50250
05
#50500
0=
0#
0-
0.
0+
0"
0,
01
04
b10000000 :
15
#50750
05
#51000
0)
1(
0&
0!
1%
0<
15
